%YAML 1.1
%TAG !u! tag:unity3d.com,2011:
--- !u!74 &7400000
AnimationClip:
  m_ObjectHideFlags: 0
  m_CorrespondingSourceObject: {fileID: 0}
  m_PrefabInstance: {fileID: 0}
  m_PrefabAsset: {fileID: 0}
  m_Name: IdleGoblin
  serializedVersion: 6
  m_Legacy: 0
  m_Compressed: 0
  m_UseHighQualityCurve: 1
  m_RotationCurves: []
  m_CompressedRotationCurves: []
  m_EulerCurves: []
  m_PositionCurves: []
  m_ScaleCurves: []
  m_FloatCurves: []
  m_PPtrCurves:
  - curve:
    - time: 0
      value: {fileID: -5694310758194306663, guid: 4b8f5226953d5d74fa65c2504ec0462b, type: 3}
    - time: 0.16666667
      value: {fileID: 4567143241285483229, guid: 4b8f5226953d5d74fa65c2504ec0462b, type: 3}
    - time: 0.31666666
      value: {fileID: -7252798463657730346, guid: 4b8f5226953d5d74fa65c2504ec0462b, type: 3}
    - time: 0.48333332
      value: {fileID: 3727672354853360491, guid: 4b8f5226953d5d74fa65c2504ec0462b, type: 3}
    - time: 0.68333334
      value: {fileID: 4427305258895261676, guid: 4b8f5226953d5d74fa65c2504ec0462b, type: 3}
    - time: 0.8333333
      value: {fileID: 4826146193626922090, guid: 4b8f5226953d5d74fa65c2504ec0462b, type: 3}
    - time: 1
      value: {fileID: 294745071406809312, guid: 4b8f5226953d5d74fa65c2504ec0462b, type: 3}
    attribute: m_Sprite
    path: 
    classID: 212
    script: {fileID: 0}
  m_SampleRate: 60
  m_WrapMode: 0
  m_Bounds:
    m_Center: {x: 0, y: 0, z: 0}
    m_Extent: {x: 0, y: 0, z: 0}
  m_ClipBindingConstant:
    genericBindings:
    - serializedVersion: 2
      path: 0
      attribute: 0
      script: {fileID: 0}
      typeID: 212
      customType: 23
      isPPtrCurve: 1
    pptrCurveMapping:
    - {fileID: -5694310758194306663, guid: 4b8f5226953d5d74fa65c2504ec0462b, type: 3}
    - {fileID: 4567143241285483229, guid: 4b8f5226953d5d74fa65c2504ec0462b, type: 3}
    - {fileID: -7252798463657730346, guid: 4b8f5226953d5d74fa65c2504ec0462b, type: 3}
    - {fileID: 3727672354853360491, guid: 4b8f5226953d5d74fa65c2504ec0462b, type: 3}
    - {fileID: 4427305258895261676, guid: 4b8f5226953d5d74fa65c2504ec0462b, type: 3}
    - {fileID: 4826146193626922090, guid: 4b8f5226953d5d74fa65c2504ec0462b, type: 3}
    - {fileID: 294745071406809312, guid: 4b8f5226953d5d74fa65c2504ec0462b, type: 3}
  m_AnimationClipSettings:
    serializedVersion: 2
    m_AdditiveReferencePoseClip: {fileID: 0}
    m_AdditiveReferencePoseTime: 0
    m_StartTime: 0
    m_StopTime: 1.0166667
    m_OrientationOffsetY: 0
    m_Level: 0
    m_CycleOffset: 0
    m_HasAdditiveReferencePose: 0
    m_LoopTime: 1
    m_LoopBlend: 0
    m_LoopBlendOrientation: 0
    m_LoopBlendPositionY: 0
    m_LoopBlendPositionXZ: 0
    m_KeepOriginalOrientation: 0
    m_KeepOriginalPositionY: 1
    m_KeepOriginalPositionXZ: 0
    m_HeightFromFeet: 0
    m_Mirror: 0
  m_EditorCurves: []
  m_EulerEditorCurves: []
  m_HasGenericRootTransform: 0
  m_HasMotionFloatCurves: 0
  m_Events: []
