%YAML 1.1
%TAG !u! tag:unity3d.com,2011:
--- !u!74 &7400000
AnimationClip:
  m_ObjectHideFlags: 0
  m_CorrespondingSourceObject: {fileID: 0}
  m_PrefabInstance: {fileID: 0}
  m_PrefabAsset: {fileID: 0}
  m_Name: SplashAttack
  serializedVersion: 6
  m_Legacy: 0
  m_Compressed: 0
  m_UseHighQualityCurve: 1
  m_RotationCurves: []
  m_CompressedRotationCurves: []
  m_EulerCurves: []
  m_PositionCurves:
  - curve:
      serializedVersion: 2
      m_Curve:
      - serializedVersion: 3
        time: 0
        value: {x: 6, y: 0, z: 0}
        inSlope: {x: 0, y: 0, z: 0}
        outSlope: {x: 0, y: 0, z: 0}
        tangentMode: 0
        weightedMode: 0
        inWeight: {x: 0.33333334, y: 0.33333334, z: 0.33333334}
        outWeight: {x: 0.33333334, y: 0.33333334, z: 0.33333334}
      - serializedVersion: 3
        time: 0.75
        value: {x: 10, y: 0, z: 0}
        inSlope: {x: 0, y: 0, z: 0}
        outSlope: {x: 0, y: 0, z: 0}
        tangentMode: 0
        weightedMode: 0
        inWeight: {x: 0.33333334, y: 0.33333334, z: 0.33333334}
        outWeight: {x: 0.33333334, y: 0.33333334, z: 0.33333334}
      m_PreInfinity: 2
      m_PostInfinity: 2
      m_RotationOrder: 4
    path: 
  m_ScaleCurves: []
  m_FloatCurves: []
  m_PPtrCurves:
  - curve:
    - time: 0
      value: {fileID: 481195173714635170, guid: 3bc381517d06c3544a2be8c082f6603d, type: 3}
    - time: 0.06666667
      value: {fileID: 8867845636318069381, guid: 3bc381517d06c3544a2be8c082f6603d, type: 3}
    - time: 0.13333334
      value: {fileID: -7861895915104152475, guid: 3bc381517d06c3544a2be8c082f6603d, type: 3}
    - time: 0.2
      value: {fileID: 5015976536339141039, guid: 3bc381517d06c3544a2be8c082f6603d, type: 3}
    - time: 0.26666668
      value: {fileID: 1304522926078431683, guid: 3bc381517d06c3544a2be8c082f6603d, type: 3}
    - time: 0.33333334
      value: {fileID: -512439870986897466, guid: 3bc381517d06c3544a2be8c082f6603d, type: 3}
    - time: 0.41666666
      value: {fileID: 2868195182315169902, guid: 3bc381517d06c3544a2be8c082f6603d, type: 3}
    - time: 0.48333332
      value: {fileID: 3736681858460900883, guid: 3bc381517d06c3544a2be8c082f6603d, type: 3}
    - time: 0.55
      value: {fileID: 8707906517509396055, guid: 3bc381517d06c3544a2be8c082f6603d, type: 3}
    - time: 0.6166667
      value: {fileID: 2645108800094121747, guid: 3bc381517d06c3544a2be8c082f6603d, type: 3}
    - time: 0.68333334
      value: {fileID: -7767644485739712161, guid: 3bc381517d06c3544a2be8c082f6603d, type: 3}
    attribute: m_Sprite
    path: 
    classID: 212
    script: {fileID: 0}
  m_SampleRate: 60
  m_WrapMode: 0
  m_Bounds:
    m_Center: {x: 0, y: 0, z: 0}
    m_Extent: {x: 0, y: 0, z: 0}
  m_ClipBindingConstant:
    genericBindings:
    - serializedVersion: 2
      path: 0
      attribute: 1
      script: {fileID: 0}
      typeID: 4
      customType: 0
      isPPtrCurve: 0
    - serializedVersion: 2
      path: 0
      attribute: 0
      script: {fileID: 0}
      typeID: 212
      customType: 23
      isPPtrCurve: 1
    pptrCurveMapping:
    - {fileID: 481195173714635170, guid: 3bc381517d06c3544a2be8c082f6603d, type: 3}
    - {fileID: 8867845636318069381, guid: 3bc381517d06c3544a2be8c082f6603d, type: 3}
    - {fileID: -7861895915104152475, guid: 3bc381517d06c3544a2be8c082f6603d, type: 3}
    - {fileID: 5015976536339141039, guid: 3bc381517d06c3544a2be8c082f6603d, type: 3}
    - {fileID: 1304522926078431683, guid: 3bc381517d06c3544a2be8c082f6603d, type: 3}
    - {fileID: -512439870986897466, guid: 3bc381517d06c3544a2be8c082f6603d, type: 3}
    - {fileID: 2868195182315169902, guid: 3bc381517d06c3544a2be8c082f6603d, type: 3}
    - {fileID: 3736681858460900883, guid: 3bc381517d06c3544a2be8c082f6603d, type: 3}
    - {fileID: 8707906517509396055, guid: 3bc381517d06c3544a2be8c082f6603d, type: 3}
    - {fileID: 2645108800094121747, guid: 3bc381517d06c3544a2be8c082f6603d, type: 3}
    - {fileID: -7767644485739712161, guid: 3bc381517d06c3544a2be8c082f6603d, type: 3}
  m_AnimationClipSettings:
    serializedVersion: 2
    m_AdditiveReferencePoseClip: {fileID: 0}
    m_AdditiveReferencePoseTime: 0
    m_StartTime: 0
    m_StopTime: 0.75
    m_OrientationOffsetY: 0
    m_Level: 0
    m_CycleOffset: 0
    m_HasAdditiveReferencePose: 0
    m_LoopTime: 0
    m_LoopBlend: 0
    m_LoopBlendOrientation: 0
    m_LoopBlendPositionY: 0
    m_LoopBlendPositionXZ: 0
    m_KeepOriginalOrientation: 0
    m_KeepOriginalPositionY: 1
    m_KeepOriginalPositionXZ: 0
    m_HeightFromFeet: 0
    m_Mirror: 0
  m_EditorCurves:
  - curve:
      serializedVersion: 2
      m_Curve:
      - serializedVersion: 3
        time: 0
        value: 6
        inSlope: 0
        outSlope: 0
        tangentMode: 136
        weightedMode: 0
        inWeight: 0.33333334
        outWeight: 0.33333334
      - serializedVersion: 3
        time: 0.75
        value: 10
        inSlope: 0
        outSlope: 0
        tangentMode: 136
        weightedMode: 0
        inWeight: 0.33333334
        outWeight: 0.33333334
      m_PreInfinity: 2
      m_PostInfinity: 2
      m_RotationOrder: 4
    attribute: m_LocalPosition.x
    path: 
    classID: 4
    script: {fileID: 0}
  - curve:
      serializedVersion: 2
      m_Curve:
      - serializedVersion: 3
        time: 0
        value: 0
        inSlope: 0
        outSlope: 0
        tangentMode: 136
        weightedMode: 0
        inWeight: 0.33333334
        outWeight: 0.33333334
      - serializedVersion: 3
        time: 0.75
        value: 0
        inSlope: 0
        outSlope: 0
        tangentMode: 136
        weightedMode: 0
        inWeight: 0.33333334
        outWeight: 0.33333334
      m_PreInfinity: 2
      m_PostInfinity: 2
      m_RotationOrder: 4
    attribute: m_LocalPosition.y
    path: 
    classID: 4
    script: {fileID: 0}
  - curve:
      serializedVersion: 2
      m_Curve:
      - serializedVersion: 3
        time: 0
        value: 0
        inSlope: 0
        outSlope: 0
        tangentMode: 136
        weightedMode: 0
        inWeight: 0.33333334
        outWeight: 0.33333334
      - serializedVersion: 3
        time: 0.75
        value: 0
        inSlope: 0
        outSlope: 0
        tangentMode: 136
        weightedMode: 0
        inWeight: 0.33333334
        outWeight: 0.33333334
      m_PreInfinity: 2
      m_PostInfinity: 2
      m_RotationOrder: 4
    attribute: m_LocalPosition.z
    path: 
    classID: 4
    script: {fileID: 0}
  m_EulerEditorCurves: []
  m_HasGenericRootTransform: 1
  m_HasMotionFloatCurves: 0
  m_Events: []
